{
  "id": "7ae90a4b-dc53-4ad3-9ee8-79cbbfbacd8a",
  "request": {
    "method": "GET",
    "urlPathPattern": "/secure/offenders/primaryIdentifiers/?includeActiveOnly=active&sort=offenderId,asc&page=2"
  },
  "response": {
    "headers": {
      "Content-Type": "application/json"
    },
    "status": 200,
    "jsonBody": {
      "content": [
        {
          "offenderId": 2500000501,
          "crn": "X373305"
        },
        {
          "offenderId": 2500000503,
          "crn": "D009067"
        },
        {
          "offenderId": 2500000513,
          "crn": "D009067"
        },
        {
          "offenderId": 2500000519,
          "crn": "D009067"
        },
        {
          "offenderId": 2500000536,
          "crn": "D001057"
        },
        {
          "offenderId": 2500000537,
          "crn": "D001058"
        },
        {
          "offenderId": 2500000539,
          "crn": "D001060"
        },
        {
          "offenderId": 2500000541,
          "crn": "D001062"
        },
        {
          "offenderId": 2500000543,
          "crn": "D001064"
        },
        {
          "offenderId": 2500000544,
          "crn": "D001065"
        }
      ],
      "pageable": {
        "sort": {
          "sorted": true,
          "unsorted": false,
          "empty": false
        },
        "offset": 0,
        "pageSize": 10,
        "pageNumber": 0,
        "paged": true,
        "unpaged": false
      },
      "last": false,
      "totalPages": 30265,
      "totalElements": 302646,
      "size": 10,
      "number": 0,
      "sort": {
        "sorted": true,
        "unsorted": false,
        "empty": false
      },
      "first": true,
      "numberOfElements": 10,
      "empty": false
    }
  }
}
